Data wrangling fundamentals
…
Calculating summary statistics

Question: What is the average body mass for each species?

Calculating summary statistics

Question: What is the average body mass for each species?

starwars |>
  group_by(species) |>
  summarize(mean_height = mean(height, na.rm=T))

# A tibble: 38 × 2
   species   mean_height
   <chr>           <dbl>
 1 Aleena            79 
 2 Besalisk         198 
 3 Cerean           198 
 4 Chagrian         196 
 5 Clawdite         168 
 6 Droid            131.
 7 Dug              112 
 8 Ewok              88 
 9 Geonosian        183 
10 Gungan           209.
# ℹ 28 more rows
…
Question: What is the distribution of the ratio of body mass to height?

starwars |>
  mutate(body_ratio = mass/height)

Creating new variables

starwars |>
  mutate(body_ratio = mass/height) |>
  group_by(species) |>
  summarize(mean_ratio = mean(body_ratio, na.rm=T),
            sd_ratio = sd(body_ratio, na.rm=T))

# A tibble: 38 × 3
   species   mean_ratio sd_ratio
   <chr>          <dbl>    <dbl>
 1 Aleena         0.190  NA     
 2 Besalisk       0.515  NA     
 3 Cerean         0.414  NA     
 4 Chagrian     NaN      NA     
 5 Clawdite       0.327  NA     
 6 Droid          0.453   0.174 
 7 Dug            0.357  NA     
 8 Ewok           0.227  NA     
 9 Geonosian      0.437  NA     
10 Gungan         0.351   0.0207
# ℹ 28 more rows

Creating new variables

starwars |>
  mutate(body_ratio = mass/height) |>
  group_by(species) |>
  summarize(mean_ratio = mean(body_ratio, na.rm=T),
            sd_ratio = sd(body_ratio, na.rm=T),
            N = n())

# A tibble: 38 × 4
   species   mean_ratio sd_ratio     N
   <chr>          <dbl>    <dbl> <int>
 1 Aleena         0.190  NA          1
 2 Besalisk       0.515  NA          1
 3 Cerean         0.414  NA          1
 4 Chagrian     NaN      NA          1
 5 Clawdite       0.327  NA          1
 6 Droid          0.453   0.174      6
 7 Dug            0.357  NA          1
 8 Ewok           0.227  NA          1
 9 Geonosian      0.437  NA          1
10 Gungan         0.351   0.0207     3
# ℹ 28 more rows
…
