Reshaping data
…
df |> 
  pivot_longer(
    cols = bp1:bp2,
    names_to = "measurement",
    values_to = "value"
  )

Why pivot?

# A tibble: 260 × 38
   country `1975` `1976` `1977` `1978` `1979` `1980` `1981` `1982` `1983` `1984`
   <chr>    <dbl>  <dbl>  <dbl>  <dbl>  <dbl>  <dbl>  <dbl>  <dbl>  <dbl>  <dbl>
 1 Afghan…     NA     NA     NA     NA   4.99   NA       NA     NA     NA   NA  
 2 Albania     NA     NA     NA     NA  NA      NA       NA     NA     NA   NA  
 3 Algeria     NA     NA     NA     NA  NA      NA       NA     NA     NA   NA  
 4 Andorra     NA     NA     NA     NA  NA      NA       NA     NA     NA   NA  
 5 Angola      NA     NA     NA     NA  NA      NA       NA     NA     NA   NA  
 6 Anguil…     NA     NA     NA     NA  NA      NA       NA     NA     NA   95.7
 7 Antigu…     NA     NA     NA     NA  NA      NA       NA     NA     NA   NA  
 8 Argent…     NA     NA     NA     NA  NA      93.6     NA     NA     NA   NA  
 9 Armenia     NA     NA     NA     NA  NA      NA       NA     NA     NA   NA  
10 Aruba       NA     NA     NA     NA  NA      NA       NA     NA     NA   NA  
# ℹ 250 more rows
# ℹ 27 more variables: `1985` <dbl>, `1986` <dbl>, `1987` <dbl>, `1988` <dbl>,
#   `1989` <dbl>, `1990` <dbl>, `1991` <dbl>, `1992` <dbl>, `1993` <dbl>,
#   `1994` <dbl>, `1995` <dbl>, `1996` <dbl>, `1997` <dbl>, `1998` <dbl>,
#   `1999` <dbl>, `2000` <dbl>, `2001` <dbl>, `2002` <dbl>, `2003` <dbl>,
#   `2004` <dbl>, `2005` <dbl>, `2006` <dbl>, `2007` <dbl>, `2008` <dbl>,
#   `2009` <dbl>, `2010` <dbl>, `2011` <dbl>
…
Why pivot?

Literacy data in narrow form:

litF_long <- litF |>
  pivot_longer(
    cols = -country,
    names_to = "year",
    values_to = "literacy_rate",
    values_drop_na = T
  )

litF_long

# A tibble: 571 × 3
   country     year  literacy_rate
   <chr>       <chr>         <dbl>
 1 Afghanistan 1979           4.99
 2 Afghanistan 2011          13   
 3 Albania     2001          98.3 
 4 Albania     2008          94.7 
 5 Albania     2011          95.7 
 6 Algeria     1987          35.8 
 7 Algeria     2002          60.1 
 8 Algeria     2006          63.9 
 9 Angola      2001          54.2 
10 Angola      2011          58.6 
# ℹ 561 more rows
…
Coefficients:
(Intercept)           hr       stage2  
     38.022        1.074       -6.223  

lm(bp ~ hr + stage, 
   data = df3_new)

Going the other way

Data on air quality in two locations (BETR801, London Westminster) on different days:

air_quality

# A tibble: 1,825 × 3
   date.utc            location value
   <dttm>              <chr>    <dbl>
 1 2019-06-18 06:00:00 BETR801   18  
 2 2019-06-17 08:00:00 BETR801    6.5
 3 2019-06-17 07:00:00 BETR801   18.5
 4 2019-06-17 06:00:00 BETR801   16  
 5 2019-06-17 05:00:00 BETR801    7.5
 6 2019-06-17 04:00:00 BETR801    7.5
 7 2019-06-17 03:00:00 BETR801    7  
 8 2019-06-17 02:00:00 BETR801    7  
 9 2019-06-17 01:00:00 BETR801    8  
10 2019-06-16 01:00:00 BETR801   15  
# ℹ 1,815 more rows
…
pivot_wider

# A tibble: 3 × 3
  date.utc            location value
  <dttm>              <chr>    <dbl>
1 2019-06-18 06:00:00 BETR801   18  
2 2019-06-17 08:00:00 BETR801    6.5
3 2019-06-17 07:00:00 BETR801   18.5

air_quality |>
  pivot_wider(id_cols = date.utc,
              names_from = location,
              values_from = value)

# A tibble: 1,670 × 3
   date.utc            BETR801 `London Westminster`
   <dttm>                <dbl>                <dbl>
 1 2019-06-18 06:00:00    18                      7
 2 2019-06-17 08:00:00     6.5                    6
 3 2019-06-17 07:00:00    18.5                    6
 4 2019-06-17 06:00:00    16                      6
 5 2019-06-17 05:00:00     7.5                    6
 6 2019-06-17 04:00:00     7.5                    6
 7 2019-06-17 03:00:00     7                      6
 8 2019-06-17 02:00:00     7                      6
 9 2019-06-17 01:00:00     8                      6
10 2019-06-16 01:00:00    15                      7
# ℹ 1,660 more rows
…
